<?xml version="1.0" encoding="UTF-8" standalone="no"?>
<!-- Created with Inkscape (http://www.inkscape.org/) -->

<svg
   xmlns:osb="http://www.openswatchbook.org/uri/2009/osb"
   xmlns:dc="http://purl.org/dc/elements/1.1/"
   xmlns:cc="http://creativecommons.org/ns#"
   xmlns:rdf="http://www.w3.org/1999/02/22-rdf-syntax-ns#"
   xmlns:svg="http://www.w3.org/2000/svg"
   xmlns="http://www.w3.org/2000/svg"
   xmlns:xlink="http://www.w3.org/1999/xlink"
   xmlns:sodipodi="http://sodipodi.sourceforge.net/DTD/sodipodi-0.dtd"
   xmlns:inkscape="http://www.inkscape.org/namespaces/inkscape"
   height="48"
   width="48"
   id="svg3213"
   version="1.1"
   inkscape:version="0.92.0 unknown"
   viewBox="0 0 48 48"
   sodipodi:docname="terminal-bottom-only.svg">
  <defs
     id="defs3219">
    <linearGradient
       id="linearGradient5547"
       osb:paint="solid">
      <stop
         style="stop-color:#ac9d93;stop-opacity:1;"
         offset="0"
         id="stop5545" />
    </linearGradient>
    <linearGradient
       id="linearGradient5320"
       osb:paint="solid">
      <stop
         style="stop-color:#ac9d93;stop-opacity:1;"
         offset="0"
         id="stop5318" />
    </linearGradient>
    <linearGradient
       id="linearGradient5308"
       osb:paint="solid">
      <stop
         style="stop-color:#000000;stop-opacity:0.94117647;"
         offset="0"
         id="stop5306" />
    </linearGradient>
    <linearGradient
       id="linearGradient5110"
       osb:paint="solid">
      <stop
         style="stop-color:#3e3d3d;stop-opacity:1;"
         offset="0"
         id="stop5108" />
    </linearGradient>
    <linearGradient
       id="linearGradient4580"
       osb:paint="solid">
      <stop
         style="stop-color:#748181;stop-opacity:1;"
         offset="0"
         id="stop4578" />
    </linearGradient>
    <inkscape:path-effect
       effect="bspline"
       id="path-effect4540"
       is_visible="true"
       weight="33.333333"
       steps="2"
       helper_size="0"
       apply_no_weight="true"
       apply_with_weight="true"
       only_selected="false" />
    <inkscape:path-effect
       effect="bspline"
       id="path-effect4536"
       is_visible="true"
       weight="33.333333"
       steps="2"
       helper_size="0"
       apply_no_weight="true"
       apply_with_weight="true"
       only_selected="false" />
    <inkscape:path-effect
       effect="bspline"
       id="path-effect4528"
       is_visible="true"
       weight="33.333333"
       steps="2"
       helper_size="0"
       apply_no_weight="true"
       apply_with_weight="true"
       only_selected="false" />
    <inkscape:path-effect
       effect="bspline"
       id="path-effect4524"
       is_visible="true"
       weight="33.333333"
       steps="2"
       helper_size="0"
       apply_no_weight="true"
       apply_with_weight="true"
       only_selected="false" />
    <inkscape:path-effect
       effect="bspline"
       id="path-effect4520"
       is_visible="true"
       weight="33.333333"
       steps="2"
       helper_size="0"
       apply_no_weight="true"
       apply_with_weight="true"
       only_selected="false" />
    <inkscape:path-effect
       effect="bspline"
       id="path-effect4516"
       is_visible="true"
       weight="33.333333"
       steps="2"
       helper_size="0"
       apply_no_weight="true"
       apply_with_weight="true"
       only_selected="false" />
    <inkscape:path-effect
       effect="bspline"
       id="path-effect4512"
       is_visible="true"
       weight="33.333333"
       steps="2"
       helper_size="0"
       apply_no_weight="true"
       apply_with_weight="true"
       only_selected="false" />
    <inkscape:path-effect
       effect="bspline"
       id="path-effect4508"
       is_visible="true"
       weight="33.333333"
       steps="2"
       helper_size="0"
       apply_no_weight="true"
       apply_with_weight="true"
       only_selected="false" />
    <linearGradient
       id="linearGradient4521"
       osb:paint="solid">
      <stop
         style="stop-color:#000000;stop-opacity:1;"
         offset="0"
         id="stop4519" />
    </linearGradient>
    <inkscape:path-effect
       effect="bspline"
       id="path-effect4505"
       is_visible="true"
       weight="33.333333"
       steps="2"
       helper_size="0"
       apply_no_weight="true"
       apply_with_weight="true"
       only_selected="false" />
    <inkscape:path-effect
       effect="bspline"
       id="path-effect4501"
       is_visible="true"
       weight="33.333333"
       steps="2"
       helper_size="0"
       apply_no_weight="true"
       apply_with_weight="true"
       only_selected="false" />
    <inkscape:path-effect
       effect="bspline"
       id="path-effect4497"
       is_visible="true"
       weight="33.333333"
       steps="2"
       helper_size="0"
       apply_no_weight="true"
       apply_with_weight="true"
       only_selected="false" />
    <inkscape:path-effect
       effect="bspline"
       id="path-effect4493"
       is_visible="true"
       weight="33.333333"
       steps="2"
       helper_size="0"
       apply_no_weight="true"
       apply_with_weight="true"
       only_selected="false" />
    <linearGradient
       inkscape:collect="always"
       xlink:href="#linearGradient4580"
       id="linearGradient5314"
       gradientUnits="userSpaceOnUse"
       x1="2"
       y1="24"
       x2="46"
       y2="24"
       gradientTransform="matrix(0.92307692,0,0,0.89473684,1.3076923,2)" />
    <linearGradient
       inkscape:collect="always"
       xlink:href="#linearGradient5110"
       id="linearGradient5322"
       x1="2"
       y1="22"
       x2="14"
       y2="22"
       gradientUnits="userSpaceOnUse"
       gradientTransform="matrix(3.6666666,0,0,1.4736842,-5.3333336,-4.7368421)" />
    <linearGradient
       inkscape:collect="always"
       xlink:href="#linearGradient4580"
       id="linearGradient5549"
       x1="14"
       y1="24"
       x2="34"
       y2="24"
       gradientUnits="userSpaceOnUse" />
  </defs>
  <sodipodi:namedview
     pagecolor="#ffffff"
     bordercolor="#666666"
     borderopacity="1"
     objecttolerance="50"
     gridtolerance="10000"
     guidetolerance="10000"
     inkscape:pageopacity="0"
     inkscape:pageshadow="2"
     inkscape:window-width="1920"
     inkscape:window-height="1015"
     id="namedview3217"
     showgrid="true"
     inkscape:zoom="13.453124"
     inkscape:cx="26.692886"
     inkscape:cy="19.756148"
     inkscape:window-x="0"
     inkscape:window-y="0"
     inkscape:window-maximized="1"
     inkscape:current-layer="layer1"
     showguides="true"
     inkscape:snap-tangential="true"
     inkscape:snap-perpendicular="true"
     inkscape:guide-bbox="true"
     inkscape:snap-to-guides="true"
     inkscape:snap-page="false"
     inkscape:snap-object-midpoints="false"
     inkscape:snap-nodes="true">
    <inkscape:grid
       type="xygrid"
       id="grid3269"
       empspacing="5"
       dotted="false"
       originx="24"
       originy="24" />
    <sodipodi:guide
       position="35,24"
       orientation="0,1"
       inkscape:locked="false"
       id="guide4507"
       inkscape:label=""
       inkscape:color="rgb(0,0,0)" />
    <sodipodi:guide
       position="24,44"
       orientation="1,0"
       inkscape:locked="false"
       id="guide4509"
       inkscape:label=""
       inkscape:color="rgb(0,0,0)" />
    <sodipodi:guide
       position="48,0"
       orientation="-0.70710678,-0.70710678"
       inkscape:locked="false"
       id="guide4511"
       inkscape:label=""
       inkscape:color="rgb(0,0,0)" />
    <sodipodi:guide
       position="0,0"
       orientation="-0.70710678,0.70710678"
       inkscape:locked="false"
       id="guide4513"
       inkscape:label=""
       inkscape:color="rgb(0,0,0)" />
    <sodipodi:guide
       position="10,46"
       orientation="0,1"
       inkscape:locked="false"
       id="guide4535"
       inkscape:label="Vertical"
       inkscape:color="rgb(255,0,0)" />
    <sodipodi:guide
       position="46,38"
       orientation="1,0"
       inkscape:locked="false"
       id="guide4537"
       inkscape:label="Horizontal"
       inkscape:color="rgb(0,255,0)" />
    <sodipodi:guide
       position="38,2"
       orientation="0,1"
       inkscape:locked="false"
       id="guide4539"
       inkscape:label="Vertical"
       inkscape:color="rgb(255,0,0)" />
    <sodipodi:guide
       position="46,10"
       orientation="0,1"
       id="guide4530"
       inkscape:locked="false"
       inkscape:label="Horizontal"
       inkscape:color="rgb(0,255,0)" />
    <sodipodi:guide
       position="2,38"
       orientation="0,1"
       id="guide4532"
       inkscape:locked="false"
       inkscape:label="Horizontal"
       inkscape:color="rgb(0,255,0)" />
    <sodipodi:guide
       position="2,10"
       orientation="1,0"
       id="guide4544"
       inkscape:locked="false"
       inkscape:label="Horizontal"
       inkscape:color="rgb(0,255,0)" />
    <sodipodi:guide
       position="38,46"
       orientation="1,0"
       id="guide4546"
       inkscape:locked="false"
       inkscape:label="Vertical"
       inkscape:color="rgb(255,0,0)" />
    <sodipodi:guide
       position="10,2"
       orientation="1,0"
       id="guide4548"
       inkscape:locked="false"
       inkscape:label="Vertical"
       inkscape:color="rgb(255,0,0)" />
    <sodipodi:guide
       position="14,34"
       orientation="0,1"
       id="guide4556"
       inkscape:locked="false"
       inkscape:label=""
       inkscape:color="rgb(0,0,0)" />
    <sodipodi:guide
       position="34,14"
       orientation="0,1"
       id="guide4558"
       inkscape:locked="false"
       inkscape:label=""
       inkscape:color="rgb(0,0,0)" />
    <sodipodi:guide
       position="34,34"
       orientation="1,0"
       id="guide4564"
       inkscape:locked="false"
       inkscape:label=""
       inkscape:color="rgb(0,0,0)" />
    <sodipodi:guide
       position="14,34"
       orientation="1,0"
       id="guide4566"
       inkscape:locked="false"
       inkscape:label=""
       inkscape:color="rgb(0,0,0)" />
    <sodipodi:guide
       position="5,43"
       orientation="1,0"
       id="guide4568"
       inkscape:locked="false"
       inkscape:label="Square"
       inkscape:color="rgb(0,0,255)" />
    <sodipodi:guide
       position="5,5"
       orientation="0,1"
       id="guide4570"
       inkscape:locked="false"
       inkscape:label="Square"
       inkscape:color="rgb(0,0,255)" />
    <sodipodi:guide
       position="43,5"
       orientation="1,0"
       id="guide4572"
       inkscape:locked="false"
       inkscape:label="Square"
       inkscape:color="rgb(0,0,255)" />
    <sodipodi:guide
       position="43,43"
       orientation="0,1"
       id="guide4574"
       inkscape:locked="false"
       inkscape:label="Square"
       inkscape:color="rgb(0,0,255)" />
  </sodipodi:namedview>
  <metadata
     id="metadata3215">
    <rdf:RDF>
      <cc:Work
         rdf:about="">
        <dc:format>image/svg+xml</dc:format>
        <dc:type
           rdf:resource="http://purl.org/dc/dcmitype/StillImage" />
        <dc:title></dc:title>
      </cc:Work>
    </rdf:RDF>
  </metadata>
  <g
     inkscape:groupmode="layer"
     id="layer1"
     inkscape:label="Layer 1">
    <rect
       style="opacity:0.86000001;fill:none;fill-opacity:1;stroke:none;stroke-width:0.37795276;stroke-linecap:square;stroke-linejoin:miter;stroke-miterlimit:4;stroke-dasharray:none;stroke-opacity:1"
       id="rect4541"
       width="32"
       height="44"
       x="-10"
       y="-2"
       rx="2"
       ry="2" />
    <rect
       style="opacity:0.86000001;fill:url(#linearGradient5322);fill-opacity:1;stroke:none;stroke-width:8.78568077;stroke-linecap:square;stroke-linejoin:miter;stroke-miterlimit:4;stroke-dasharray:none;stroke-opacity:1"
       id="rect5316"
       width="44"
       height="28"
       x="2"
       y="10" />
    <rect
       style="opacity:0.86000001;fill:url(#linearGradient5549);fill-opacity:1;stroke:none;stroke-width:4;stroke-linecap:square;stroke-linejoin:miter;stroke-miterlimit:4;stroke-dasharray:none;stroke-opacity:1"
       id="rect5543"
       width="20"
       height="20"
       x="14"
       y="14"
       rx="2.8" />
  </g>
</svg>
